%TF.GenerationSoftware,KiCad,Pcbnew,(6.0.0)*%
%TF.CreationDate,2022-01-24T10:19:19-03:00*%
%TF.ProjectId,Acelerometro,4163656c-6572-46f6-9d65-74726f2e6b69,rev?*%
%TF.SameCoordinates,Original*%
%TF.FileFunction,Profile,NP*%
%FSLAX46Y46*%
G04 Gerber Fmt 4.6, Leading zero omitted, Abs format (unit mm)*
G04 Created by KiCad (PCBNEW (6.0.0)) date 2022-01-24 10:19:19*
%MOMM*%
%LPD*%
G01*
G04 APERTURE LIST*
%TA.AperFunction,Profile*%
%ADD10C,0.100000*%
%TD*%
G04 APERTURE END LIST*
D10*
X141000000Y-69000000D02*
X171000000Y-69000000D01*
X171000000Y-69000000D02*
X171000000Y-160000000D01*
X171000000Y-160000000D02*
X141000000Y-160000000D01*
X141000000Y-160000000D02*
X141000000Y-69000000D01*
M02*
